<?xml version="1.0" encoding="UTF-8" standalone="no"?>
<svg
   xmlns:dc="http://purl.org/dc/elements/1.1/"
   xmlns:cc="http://creativecommons.org/ns#"
   xmlns:rdf="http://www.w3.org/1999/02/22-rdf-syntax-ns#"
   xmlns:svg="http://www.w3.org/2000/svg"
   xmlns="http://www.w3.org/2000/svg"
   xmlns:sodipodi="http://sodipodi.sourceforge.net/DTD/sodipodi-0.dtd"
   xmlns:inkscape="http://www.inkscape.org/namespaces/inkscape"
   inkscape:version="1.0 (4035a4fb49, 2020-05-01)"
   sodipodi:docname="aktivierungsCounter.svg"
   id="svg8"
   version="1.1"
   viewBox="0 0 210 297"
   height="297mm"
   width="210mm">
  <defs
     id="defs2">
    <marker
       inkscape:stockid="Arrow1Mend"
       orient="auto"
       refY="0.0"
       refX="0.0"
       id="marker1363"
       style="overflow:visible;"
       inkscape:isstock="true">
      <path
         id="path1361"
         d="M 0.0,0.0 L 5.0,-5.0 L -12.5,0.0 L 5.0,5.0 L 0.0,0.0 z "
         style="fill-rule:evenodd;stroke:#000000;stroke-width:1pt;stroke-opacity:1;fill:#000000;fill-opacity:1"
         transform="scale(0.4) rotate(180) translate(10,0)" />
    </marker>
    <marker
       inkscape:collect="always"
       inkscape:isstock="true"
       style="overflow:visible;"
       id="marker1335"
       refX="0.0"
       refY="0.0"
       orient="auto"
       inkscape:stockid="Arrow1Mend">
      <path
         transform="scale(0.4) rotate(180) translate(10,0)"
         style="fill-rule:evenodd;stroke:#000000;stroke-width:1pt;stroke-opacity:1;fill:#000000;fill-opacity:1"
         d="M 0.0,0.0 L 5.0,-5.0 L -12.5,0.0 L 5.0,5.0 L 0.0,0.0 z "
         id="path1333" />
    </marker>
    <marker
       inkscape:isstock="true"
       style="overflow:visible;"
       id="Arrow1Lend"
       refX="0.0"
       refY="0.0"
       orient="auto"
       inkscape:stockid="Arrow1Lend">
      <path
         transform="scale(0.8) rotate(180) translate(12.5,0)"
         style="fill-rule:evenodd;stroke:#000000;stroke-width:1pt;stroke-opacity:1;fill:#000000;fill-opacity:1"
         d="M 0.0,0.0 L 5.0,-5.0 L -12.5,0.0 L 5.0,5.0 L 0.0,0.0 z "
         id="path1034" />
    </marker>
    <marker
       inkscape:isstock="true"
       style="overflow:visible;"
       id="Arrow1Mend"
       refX="0.0"
       refY="0.0"
       orient="auto"
       inkscape:stockid="Arrow1Mend">
      <path
         transform="scale(0.4) rotate(180) translate(10,0)"
         style="fill-rule:evenodd;stroke:#000000;stroke-width:1pt;stroke-opacity:1;fill:#000000;fill-opacity:1"
         d="M 0.0,0.0 L 5.0,-5.0 L -12.5,0.0 L 5.0,5.0 L 0.0,0.0 z "
         id="path1040" />
    </marker>
  </defs>
  <sodipodi:namedview
     inkscape:window-maximized="1"
     inkscape:window-y="-8"
     inkscape:window-x="1912"
     inkscape:window-height="1017"
     inkscape:window-width="1920"
     showgrid="false"
     inkscape:document-rotation="0"
     inkscape:current-layer="layer1"
     inkscape:document-units="mm"
     inkscape:cy="542.27989"
     inkscape:cx="445.71084"
     inkscape:zoom="1.979899"
     inkscape:pageshadow="2"
     inkscape:pageopacity="0.0"
     borderopacity="1.0"
     bordercolor="#666666"
     pagecolor="#ffffff"
     id="base" />
  <metadata
     id="metadata5">
    <rdf:RDF>
      <cc:Work
         rdf:about="">
        <dc:format>image/svg+xml</dc:format>
        <dc:type
           rdf:resource="http://purl.org/dc/dcmitype/StillImage" />
        <dc:title></dc:title>
      </cc:Work>
    </rdf:RDF>
  </metadata>
  <g
     id="layer1"
     inkscape:groupmode="layer"
     inkscape:label="Ebene 1">
    <path
       id="path833"
       d="M 43.048096,124.81035 H 173.19604"
       style="fill:none;stroke:#000000;stroke-width:0.206116px;stroke-linecap:butt;stroke-linejoin:miter;stroke-opacity:1" />
    <path
       id="path835"
       d="m 51.198904,120.74326 v 8.53658"
       style="fill:none;stroke:#000000;stroke-width:0.206116px;stroke-linecap:butt;stroke-linejoin:miter;stroke-opacity:1" />
    <text
       id="text839"
       y="112.97551"
       x="43.286949"
       style="font-style:normal;font-weight:normal;font-size:8.24464px;line-height:1.25;font-family:sans-serif;fill:#000000;fill-opacity:1;stroke:none;stroke-width:0.206116"
       xml:space="preserve"><tspan
         style="stroke-width:0.206116"
         y="112.97551"
         x="43.286949"
         id="tspan837"
         sodipodi:role="line">04:00</tspan></text>
    <text
       xml:space="preserve"
       style="font-style:normal;font-weight:normal;font-size:8.24464px;line-height:1.25;font-family:sans-serif;fill:#000000;fill-opacity:1;stroke:none;stroke-width:0.206116"
       x="117.31878"
       y="112.97551"
       id="text839-7"><tspan
         sodipodi:role="line"
         id="tspan837-8"
         x="117.31878"
         y="112.97551"
         style="stroke-width:0.206116">15:00</tspan></text>
    <path
       id="path859"
       d="m 129.902,119.3899 v 11.2433"
       style="fill:none;stroke:#000000;stroke-width:0.206116px;stroke-linecap:butt;stroke-linejoin:miter;stroke-opacity:1" />
    <circle
       r="3.9559755"
       cy="125.01156"
       cx="58.902645"
       id="path861"
       style="fill:#00ff00;stroke:#2a2aff;stroke-width:0.0779024" />
    <circle
       style="fill:#00ff00;stroke:#2a2aff;stroke-width:0.0779024"
       id="path861-9"
       cx="70.937141"
       cy="125.01156"
       r="3.9559755" />
    <circle
       style="fill:#00ff00;stroke:#2a2aff;stroke-width:0.0779024"
       id="path861-0"
       cx="82.971642"
       cy="125.01156"
       r="3.9559755" />
    <circle
       style="fill:#00ff00;stroke:#2a2aff;stroke-width:0.0779024"
       id="path861-28"
       cx="95.006134"
       cy="125.01156"
       r="3.9559755" />
    <circle
       style="fill:#00ff00;stroke:#2a2aff;stroke-width:0.0779024"
       id="path861-26"
       cx="107.04062"
       cy="125.01156"
       r="3.9559755" />
    <circle
       style="fill:#00ff00;stroke:#2a2aff;stroke-width:0.0779024"
       id="path861-3"
       cx="119.07513"
       cy="125.01156"
       r="3.9559755" />
    <circle
       r="3.9559755"
       cy="125.01156"
       cx="138.48022"
       id="path861-28-9"
       style="fill:#ffff00;stroke:#2a2aff;stroke-width:0.0779024" />
    <circle
       r="3.9559755"
       cy="125.01156"
       cx="150.51471"
       id="path861-26-2"
       style="fill:#ffff00;stroke:#2a2aff;stroke-width:0.0779024" />
    <circle
       r="3.9559755"
       cy="125.01156"
       cx="162.54921"
       id="path861-3-3"
       style="fill:#ff0000;stroke:#2a2aff;stroke-width:0.0779024" />
    <text
       id="text973"
       y="137.24472"
       x="141.97708"
       style="font-style:normal;font-weight:normal;font-size:4.65554px;line-height:1.25;font-family:sans-serif;fill:#000000;fill-opacity:1;stroke:none;stroke-width:0.116388"
       xml:space="preserve"><tspan
         style="stroke-width:0.116388"
         y="137.24472"
         x="141.97708"
         id="tspan971"
         sodipodi:role="line">Suizid Trigger</tspan><tspan
         id="tspan975"
         style="stroke-width:0.116388"
         y="143.06415"
         x="141.97708"
         sodipodi:role="line">basierend auf</tspan><tspan
         id="tspan977"
         style="stroke-width:0.116388"
         y="148.88358"
         x="141.97708"
         sodipodi:role="line">der Geiselnahme</tspan><tspan
         id="tspan979"
         style="stroke-width:0.116388"
         y="154.703"
         x="141.97708"
         sodipodi:role="line">durch Blums seit 2001</tspan></text>
    <text
       xml:space="preserve"
       style="font-style:normal;font-weight:normal;font-size:4.65554px;line-height:1.25;font-family:sans-serif;fill:#000000;fill-opacity:1;stroke:none;stroke-width:0.116388"
       x="42.858902"
       y="136.54637"
       id="text973-1"><tspan
         sodipodi:role="line"
         x="42.858902"
         y="136.54637"
         style="stroke-width:0.116388"
         id="tspan979-7">Sinnvoller Contet, Sinnvolle Posts</tspan></text>
    <text
       id="text1019"
       y="168.91434"
       x="60.135643"
       style="font-style:normal;font-weight:normal;font-size:10.5833px;line-height:1.25;font-family:sans-serif;fill:#000000;fill-opacity:1;stroke:none;stroke-width:0.264583"
       xml:space="preserve"><tspan
         style="stroke-width:0.264583"
         y="168.91434"
         x="60.135643"
         id="tspan1017"
         sodipodi:role="line">Count, good</tspan><tspan
         id="tspan1021"
         style="stroke-width:0.264583"
         y="182.14346"
         x="60.135643"
         sodipodi:role="line">sane Tweets</tspan></text>
    <path
       id="path1023"
       d="m 119.73675,125.61668 v 31.5378"
       style="fill:none;stroke:#000000;stroke-width:1;stroke-linecap:butt;stroke-linejoin:miter;stroke-opacity:1;stroke-miterlimit:4;stroke-dasharray:none;marker-end:url(#marker1363)" />
    <path
       id="path1029"
       d="m 128.02747,165.43984 h 10.42351 v -39.28862"
       style="fill:none;stroke:#000000;stroke-width:1;stroke-linecap:butt;stroke-linejoin:miter;stroke-opacity:1;stroke-miterlimit:4;stroke-dasharray:none;marker-end:url(#marker1335)" />
  </g>
</svg>
